test – darkwing
…
# (dw.Table('https://d37ci6vzurychx.cloudfront.net/trip-data/yellow_tripdata_2010-01.parquet')
dw.Table('data/yellow_tripdata_2010-01.parquet').do(
    'select *, pickup_latitude as lat, pickup_longitude as lng',
    'select *, h3_latlng_to_cell(lat, lng, 8) as hexid',
    'select hexid, avg(tip_amount) as tip  group by 1',
    'select h3_h3_to_string(hexid) as hexid, tip',
    'where tip between 10 and 20',
    'order by hexid',
)

┌─────────────────┬────────────────────┐
│      hexid      │        tip         │
│     varchar     │       double       │
├─────────────────┼────────────────────┤
│ 881bb2a0b5fffff │              12.22 │
│ 882a100299fffff │  10.02818181818182 │
│ 882a10029dfffff │ 11.666666666666666 │
│ 882a1002c3fffff │               10.0 │
│ 882a10034bfffff │               16.0 │
│ 882a100353fffff │               17.6 │
│ 882a10045bfffff │               10.0 │
│ 882a100487fffff │             11.525 │
│ 882a10060dfffff │               16.1 │
│ 882a100611fffff │               10.0 │
│        ·        │                 ·  │
│        ·        │                 ·  │
│        ·        │                 ·  │
│ 882a13c4d9fffff │               11.5 │
│ 882a13d281fffff │               20.0 │
│ 882a13d529fffff │               15.0 │
│ 882a1438c3fffff │               10.0 │
│ 882a15663bfffff │               10.0 │
│ 882a1ab9c1fffff │              10.01 │
│ 882a353927fffff │              11.05 │
│ 882aa16327fffff │              12.51 │
│ 882aaab9ebfffff │              10.01 │
│ 882ad09327fffff │              12.51 │
├─────────────────┴────────────────────┤
│ 193 rows (20 shown)        2 columns │
└──────────────────────────────────────┘

dw.Table('data/yellow_tripdata_2010-01.parquet').do(
    'select *, pickup_latitude as lat, pickup_longitude as lng',
    'select *, h3_latlng_to_cell(lat, lng, 8) as hexid',
    'select hexid, avg(tip_amount) as tip  group by 1',
    'select h3_h3_to_string(hexid) as hexid, tip',
    'where tip between 10 and 20',
    'order by hexid',
)

┌─────────────────┬────────────────────┐
│      hexid      │        tip         │
│     varchar     │       double       │
├─────────────────┼────────────────────┤
│ 881bb2a0b5fffff │              12.22 │
│ 882a100299fffff │  10.02818181818182 │
│ 882a10029dfffff │ 11.666666666666666 │
│ 882a1002c3fffff │               10.0 │
│ 882a10034bfffff │               16.0 │
│ 882a100353fffff │               17.6 │
│ 882a10045bfffff │               10.0 │
│ 882a100487fffff │             11.525 │
│ 882a10060dfffff │               16.1 │
│ 882a100611fffff │               10.0 │
│        ·        │                 ·  │
│        ·        │                 ·  │
│        ·        │                 ·  │
│ 882a13c4d9fffff │               11.5 │
│ 882a13d281fffff │               20.0 │
│ 882a13d529fffff │               15.0 │
│ 882a1438c3fffff │               10.0 │
│ 882a15663bfffff │               10.0 │
│ 882a1ab9c1fffff │              10.01 │
│ 882a353927fffff │              11.05 │
│ 882aa16327fffff │              12.51 │
│ 882aaab9ebfffff │              10.01 │
│ 882ad09327fffff │              12.51 │
├─────────────────┴────────────────────┤
│ 193 rows (20 shown)        2 columns │
└──────────────────────────────────────┘
dw.Table('data/yellow_tripdata_2010-01.parquet').do(
    'select *, pickup_latitude as lat, pickup_longitude as lng',
).do(
    'select *, h3_latlng_to_cell(lat, lng, 8) as hexid',
).do(
    'select hexid, avg(tip_amount) as tip  group by 1',
).do(
    'select h3_h3_to_string(hexid) as hexid, tip',
).do(
   'where tip between 10 and 20',
).do(
    'order by hexid',
)

┌─────────────────┬────────────────────┐
│      hexid      │        tip         │
│     varchar     │       double       │
├─────────────────┼────────────────────┤
│ 881bb2a0b5fffff │              12.22 │
│ 882a100299fffff │  10.02818181818182 │
│ 882a10029dfffff │ 11.666666666666666 │
│ 882a1002c3fffff │               10.0 │
│ 882a10034bfffff │               16.0 │
│ 882a100353fffff │               17.6 │
│ 882a10045bfffff │               10.0 │
│ 882a100487fffff │             11.525 │
│ 882a10060dfffff │               16.1 │
│ 882a100611fffff │               10.0 │
│        ·        │                 ·  │
│        ·        │                 ·  │
│        ·        │                 ·  │
│ 882a13c4d9fffff │               11.5 │
│ 882a13d281fffff │               20.0 │
│ 882a13d529fffff │               15.0 │
│ 882a1438c3fffff │               10.0 │
│ 882a15663bfffff │               10.0 │
│ 882a1ab9c1fffff │              10.01 │
│ 882a353927fffff │              11.05 │
│ 882aa16327fffff │              12.51 │
│ 882aaab9ebfffff │              10.01 │
│ 882ad09327fffff │              12.51 │
├─────────────────┴────────────────────┤
│ 193 rows (20 shown)        2 columns │
└──────────────────────────────────────┘
…
rel1.do(foo)

┌─────────────────┬─────────────────────┐
│      hexid      │         tip         │
│     varchar     │       double        │
├─────────────────┼─────────────────────┤
│ 862a103b7ffffff │  2.4400652448557016 │
│ 862a100efffffff │  1.2719552715654947 │
│ 862a10777ffffff │  0.7949552868931107 │
│ 862a10637ffffff │  0.6767346938775509 │
│ 862a100afffffff │  0.8011410655084678 │
│ 862a10007ffffff │  0.6793565683646112 │
│ 863973107ffffff │ 0.35714285714285715 │
│ 862a10097ffffff │  1.5857277882797731 │
│ 862a330afffffff │ 0.25384615384615383 │
│ 862a1021fffffff │ 0.44750000000000006 │
│        ·        │                  ·  │
│        ·        │                  ·  │
│        ·        │                  ·  │
│ 8666e0aafffffff │                 0.5 │
│ 862a1152fffffff │                 2.0 │
│ 862b8da5fffffff │                 1.4 │
│ 862a112cfffffff │                6.18 │
│ 862a15827ffffff │                 1.5 │
│ 862a307b7ffffff │                1.55 │
│ 862a1a237ffffff │                 1.0 │
│ 862a11737ffffff │                4.08 │
│ 862a118a7ffffff │                 3.0 │
│ 862bb362fffffff │                2.15 │
├─────────────────┴─────────────────────┤
│ 850 rows (20 shown)         2 columns │
└───────────────────────────────────────┘

foo(rel1)

┌─────────────────┬────────────────────┐
│      hexid      │        tip         │
│     varchar     │       double       │
├─────────────────┼────────────────────┤
│ 862a103b7ffffff │ 2.4400652448557016 │
│ 862a100afffffff │ 0.8011410655084679 │
│ 862a100efffffff │  1.271955271565495 │
│ 862a10777ffffff │ 0.7949552868931108 │
│ 862a10b1fffffff │                4.0 │
│ 862a10ccfffffff │ 0.8404166666666666 │
│ 862a10097ffffff │  1.585727788279773 │
│ 862a1022fffffff │ 1.1291666666666667 │
│ 862a10007ffffff │ 0.6793565683646112 │
│ 862a10297ffffff │ 0.7737313432835821 │
│        ·        │                 ·  │
│        ·        │                 ·  │
│        ·        │                 ·  │
│ 862aa0dafffffff │                2.5 │
│ 862ac6347ffffff │               0.76 │
│ 86397281fffffff │                2.0 │
│ 862a5421fffffff │               3.08 │
│ 862b1c667ffffff │               1.96 │
│ 862b8db6fffffff │                1.4 │
│ 862b8b00fffffff │                4.0 │
│ 862b8b057ffffff │               6.07 │
│ 862aa956fffffff │                1.0 │
│ 862a84c1fffffff │                4.0 │
├─────────────────┴────────────────────┤
│ 850 rows (20 shown)        2 columns │
└──────────────────────────────────────┘
…
