NYC Trips Example Analysis – darkwing
…
t1 = dw.Table('data/yellow_tripdata_2010-01.parquet')
t2 = dw.Table('data/yellow_tripdata_2010-02.parquet')

f = [
    'where total_amount > 0',
    avg_list,
    'where num > 100',
]

t1 = t1.do(f)
t2 = t2.do(f)

t2

┌─────────────────┬────────────────────┬────────┐
│      hexid      │       amount       │  num   │
│     varchar     │       double       │ int64  │
├─────────────────┼────────────────────┼────────┤
│ 882a100899fffff │ 10.411548308382278 │ 151630 │
│ 882a1072c7fffff │ 11.857230505352101 │ 157415 │
│ 882a1072c9fffff │ 10.412091727564055 │ 294895 │
│ 882a10725bfffff │ 10.571474829685696 │ 320437 │
│ 882a100881fffff │ 10.881035102558677 │  56748 │
│ 882a100883fffff │ 10.157081830180404 │ 159110 │
│ 882a100893fffff │  9.707957632905176 │ 307550 │
│ 882a1072c3fffff │ 11.539048228091847 │  69586 │
│ 882a10089bfffff │ 10.793596658617217 │ 177651 │
│ 882a100f07fffff │ 13.278651522474622 │   2069 │
│        ·        │          ·         │     ·  │
│        ·        │          ·         │     ·  │
│        ·        │          ·         │     ·  │
│ 882a100f01fffff │  10.77111111111111 │    135 │
│ 882a1008e9fffff │ 14.009843750000002 │    128 │
│ 882a100f29fffff │ 10.991363636363637 │    176 │
│ 882a100ed5fffff │ 12.819280000000001 │    125 │
│ 882a103b43fffff │  18.25357142857143 │    210 │
│ 882a1001adfffff │ 13.096517857142857 │    112 │
│ 882a107455fffff │  11.83666666666667 │    252 │
│ 882a10771dfffff │ 10.645851851851852 │    135 │
│ 882a100513fffff │ 10.839266055045872 │    109 │
│ 882a106de1fffff │ 10.531418439716312 │    141 │
├─────────────────┴────────────────────┴────────┤
│ 444 rows (20 shown)                 3 columns │
└───────────────────────────────────────────────┘

To perform a join, you need two tables in on place. In Darkwing, such a place is a Database.

db = dw.Database(t1=t1, t2=t2)

db['t1']

┌─────────────────┬────────────────────┬────────┐
│      hexid      │       amount       │  num   │
│     varchar     │       double       │ int64  │
├─────────────────┼────────────────────┼────────┤
│ 882a100d65fffff │ 10.816309067189671 │ 666127 │
│ 882a100d45fffff │ 10.594611812368374 │ 185619 │
│ 882a107299fffff │ 14.289010873562011 │  38074 │
│ 882a100897fffff │  8.755456601197544 │ 140626 │
│ 882a1008bbfffff │  9.670524807010342 │ 288487 │
│ 882a100f57fffff │ 28.707747238240927 │  71965 │
│ 882a100e8dfffff │ 13.623135135135135 │    185 │
│ 882a100889fffff │ 11.282130774389216 │ 105877 │
│ 882a1008c3fffff │ 12.251557967709573 │  43852 │
│ 882a100da7fffff │ 12.546433862433862 │  15120 │
│        ·        │          ·         │     ·  │
│        ·        │          ·         │     ·  │
│        ·        │          ·         │     ·  │
│ 882a107705fffff │ 13.936949152542372 │    236 │
│ 882a100e3dfffff │ 13.378679245283017 │    106 │
│ 882a100f69fffff │ 12.060903954802258 │    177 │
│ 882a107457fffff │ 13.529417475728154 │    103 │
│ 882a10723dfffff │  17.82746575342466 │    146 │
│ 882a107665fffff │ 12.379038461538462 │    104 │
│ 882a107205fffff │ 12.363700787401571 │    127 │
│ 882a100ee1fffff │ 11.264970414201185 │    169 │
│ 882a100ebdfffff │ 12.434545454545455 │    154 │
│ 882a10773bfffff │ 11.561764705882352 │    102 │
├─────────────────┴────────────────────┴────────┤
│ 504 rows (20 shown)                 3 columns │
└───────────────────────────────────────────────┘
…
db = db.hold()

db

Database:
    t1: 504 x ['hexid', 'amount', 'num']
    t2: 444 x ['hexid', 'amount', 'num']

# NOTE: maybe confusing to users who now see a new view of their table...
# I wonder if caching the relation, or making it a property is the way to go...
# TODO: how to unify the representation between Table and a table in a Database? And reveal the underlying representation (string, df, arrow, etc.)
db.do('from t1')

┌─────────────────┬────────────────────┬────────┐
│      hexid      │       amount       │  num   │
│     varchar     │       double       │ int64  │
├─────────────────┼────────────────────┼────────┤
│ 882a107219fffff │ 10.439549116797137 │ 104506 │
│ 882a103b1dfffff │   39.6633087644075 │  59696 │
│ 882a100895fffff │   9.83854816036588 │ 106706 │
│ 882a10721bfffff │ 10.650209316209914 │ 308194 │
│ 882a1008d3fffff │ 10.761599008147352 │  28230 │
│ 882a100d4dfffff │  10.47793938201142 │  71134 │
│ 882a1008b3fffff │  9.949875167611046 │ 346785 │
│ 882a100d6dfffff │  9.794619010597279 │ 142773 │
│ 882a1072ddfffff │ 11.091350516373895 │  22658 │
│ 882a107203fffff │ 36.155391498881436 │    894 │
│        ·        │          ·         │     ·  │
│        ·        │          ·         │     ·  │
│        ·        │          ·         │     ·  │
│ 882a107731fffff │ 13.234427480916029 │    131 │
│ 882a1072bbfffff │  24.44369565217391 │    230 │
│ 882a100ed1fffff │ 11.580473933649289 │    211 │
│ 882a100a99fffff │ 10.584477611940299 │    134 │
│ 882a10775dfffff │ 11.509371727748691 │    191 │
│ 882a10762dfffff │ 14.620600000000001 │    150 │
│ 882a1008e3fffff │ 18.998749999999998 │    192 │
│ 882a100a9bfffff │ 11.034444444444444 │    117 │
│ 882a100de7fffff │ 12.739572368421053 │    304 │
│ 882a1008ebfffff │  11.71502538071066 │    197 │
├─────────────────┴────────────────────┴────────┤
│ 504 rows (20 shown)                 3 columns │
└───────────────────────────────────────────────┘
…
inner join
    t2
using
    (hexid)
""").do("""
select
      *
    , fare_feb - fare_jan
        as fare_change
order by
    fare_change
""")
out

┌─────────────────┬────────────────────┬────────────────────┬─────────────────────┐
│      hexid      │      fare_jan      │      fare_feb      │     fare_change     │
│     varchar     │       double       │       double       │       double        │
├─────────────────┼────────────────────┼────────────────────┼─────────────────────┤
│ 882a1071adfffff │  69.73084615384617 │  58.73791479820627 │ -10.992931355639904 │
│ 882a100c01fffff │ 27.110503597122307 │  20.74137254901961 │  -6.369131048102698 │
│ 882a100e37fffff │  33.03063551401869 │ 28.065557655954635 │  -4.965077858064056 │
│ 882a1072e7fffff │  42.25520958083832 │  38.42423076923076 │  -3.830978811607558 │
│ 882a1008e9fffff │  17.74246666666667 │ 14.009843750000002 │  -3.732622916666667 │
│ 882a1008e7fffff │ 14.852932330827066 │ 11.121284403669724 │ -3.7316479271573417 │
│ 882a107207fffff │ 16.860051282051284 │ 13.165116279069768 │ -3.6949350029815164 │
│ 882a100e85fffff │ 29.665849999999995 │  26.64545454545455 │ -3.0203954545454437 │
│ 882a100cc1fffff │  18.81431818181818 │  15.84008695652174 │ -2.9742312252964407 │
│ 882a10705bfffff │  25.10495283018868 │ 22.228385650224215 │ -2.8765671799644643 │
│        ·        │          ·         │          ·         │           ·         │
│        ·        │          ·         │          ·         │           ·         │
│        ·        │          ·         │          ·         │           ·         │
│ 882a10723bfffff │  36.69252998909488 │ 42.577538896746816 │   5.885008907651937 │
│ 882a1072e3fffff │  22.58889967637541 │  28.59395652173913 │   6.005056845363722 │
│ 882a107239fffff │  30.49176237623762 │   36.8459880239521 │  6.3542256477144825 │
│ 882a107231fffff │  25.71543147208122 │  33.13404255319149 │   7.418611081110271 │
│ 882a103b61fffff │ 38.679219251336896 │  46.58243243243243 │   7.903213181095531 │
│ 882a100ee5fffff │ 13.650664869721473 │ 21.770178571428573 │     8.1195137017071 │
│ 882a107209fffff │ 16.478663594470046 │ 24.767259036144576 │    8.28859544167453 │
│ 882a100813fffff │ 16.437430167597768 │ 25.611982758620687 │    9.17455259102292 │
│ 882a100d03fffff │ 12.004190371991244 │ 21.602025227750524 │    9.59783485575928 │
│ 882a100ebbfffff │  39.36631964809386 │  53.30473029045644 │  13.938410642362584 │
├─────────────────┴────────────────────┴────────────────────┴─────────────────────┤
│ 426 rows (20 shown)                                                   4 columns │
└─────────────────────────────────────────────────────────────────────────────────┘
…
