NYC Trips Example Analysis – darkwing
…
f = [
    'where (pickup_longitude != 0) and (pickup_latitude != 0)',
    'where total_amount > 0',
    avg_list,
    'where num > 100',
]

t1 = t1.do(f)
t2 = t2.do(f)

t2

┌─────────────────┬────────────────────┬────────┐
│      hexid      │       amount       │  num   │
│     varchar     │       double       │ int64  │
├─────────────────┼────────────────────┼────────┤
│ 882a10721bfffff │ 10.803940138613445 │ 244565 │
│ 882a1008b3fffff │ 10.126875919361236 │ 260371 │
│ 882a100d6dfffff │   9.90945034330094 │ 106612 │
│ 882a107219fffff │ 10.513909327172973 │  86575 │
│ 882a100aa9fffff │ 18.101094439541047 │   4532 │
│ 882a1008d3fffff │ 10.790653305570022 │  23052 │
│ 882a100d4dfffff │ 10.600163596315598 │  49940 │
│ 882a100c1bfffff │ 14.355391304347828 │    115 │
│ 882a100895fffff │ 10.017064441077808 │  73928 │
│ 882a100de9fffff │ 11.959380390075632 │   7537 │
│        ·        │          ·         │     ·  │
│        ·        │          ·         │     ·  │
│        ·        │          ·         │     ·  │
│ 882a1008cdfffff │ 10.800347222222221 │    144 │
│ 882a100c49fffff │ 15.450162601626015 │    123 │
│ 882a1005abfffff │ 11.714827586206896 │    116 │
│ 882a100587fffff │ 12.611891891891895 │    148 │
│ 882a107739fffff │ 10.626086956521739 │    115 │
│ 882a100a17fffff │ 16.823373083475296 │    587 │
│ 882a10720dfffff │ 12.326410256410256 │    117 │
│ 882a100f6dfffff │ 13.525659574468087 │    235 │
│ 882a100d83fffff │ 13.779537572254336 │    173 │
│ 882a100819fffff │ 14.074950495049507 │    101 │
├─────────────────┴────────────────────┴────────┤
│ 444 rows (20 shown)                 3 columns │
└───────────────────────────────────────────────┘

To perform a join, we need two tables in hand, which we can do with darkwing.Database():

db = dw.Database(t1=t1, t2=t2)

db['t1']

┌─────────────────┬────────────────────┬────────┐
│      hexid      │       amount       │  num   │
│     varchar     │       double       │ int64  │
├─────────────────┼────────────────────┼────────┤
│ 882a100f53fffff │  28.23948088307001 │  71795 │
│ 882a100d35fffff │ 10.773760522602288 │ 246612 │
│ 882a100d29fffff │  9.829211589147912 │ 504610 │
│ 882a100d67fffff │ 10.106109311563587 │ 594594 │
│ 882a1008b9fffff │  9.775451726322805 │ 224118 │
│ 882a1008d5fffff │  11.39579412448646 │  25802 │
│ 882a100d37fffff │ 11.116031611444457 │  45996 │
│ 882a1008d7fffff │ 10.326151716810198 │  35764 │
│ 882a100da3fffff │ 13.476266866566714 │   5336 │
│ 882a100f39fffff │ 14.055249856404366 │   1741 │
│        ·        │          ·         │     ·  │
│        ·        │          ·         │     ·  │
│        ·        │          ·         │     ·  │
│ 882a107705fffff │ 13.936949152542372 │    236 │
│ 882a107769fffff │ 15.806824644549764 │    211 │
│ 882a103b09fffff │ 22.962156862745097 │    153 │
│ 882a100c43fffff │ 22.327339449541284 │    436 │
│ 882a100ebdfffff │ 12.434545454545455 │    154 │
│ 882a100d97fffff │ 13.120447154471547 │    246 │
│ 882a100ec3fffff │ 12.654117647058824 │    153 │
│ 882a107665fffff │ 12.379038461538462 │    104 │
│ 882a1001c7fffff │ 11.631293103448275 │    232 │
│ 882a10099bfffff │ 11.908415841584159 │    101 │
├─────────────────┴────────────────────┴────────┤
│ 504 rows (20 shown)                 3 columns │
└───────────────────────────────────────────────┘
Note that because evaluation is lazy, the expressions to build each table in the database will recompute each time you compute or view a derived expression. If you want to avoid that, you can materialize the computation and create a new database. There is no need to do this if you don’t mind recomputing.

db = dw.Database(**db.hold())

db

Database:
    t1: 504 x ['hexid', 'amount', 'num']
    t2: 444 x ['hexid', 'amount', 'num']

The following will run quickly.

db.do('from t1')

┌─────────────────┬────────────────────┬────────┐
│      hexid      │       amount       │  num   │
│     varchar     │       double       │ int64  │
├─────────────────┼────────────────────┼────────┤
│ 882a100893fffff │  9.661533032430292 │ 426051 │
│ 882a10725bfffff │ 10.288604039526435 │ 421287 │
│ 882a100883fffff │  9.985855459480877 │ 222512 │
│ 882a10089bfffff │ 10.686034118679828 │ 252882 │
│ 882a1072c7fffff │ 11.649603050363377 │ 203779 │
│ 882a107281fffff │ 14.549411366436933 │  73849 │
│ 882a10728bfffff │ 15.063093678310452 │  42283 │
│ 882a1072c3fffff │  11.38762527914247 │  89560 │
│ 882a100899fffff │ 10.312122802937253 │ 210679 │
│ 882a100881fffff │ 10.705657822863863 │  76890 │
│        ·        │          ·         │     ·  │
│        ·        │          ·         │     ·  │
│        ·        │          ·         │     ·  │
│ 882a103b19fffff │  29.43716981132075 │    106 │
│ 882a1008e9fffff │  17.74246666666667 │    150 │
│ 882a107287fffff │  10.71086092715232 │    151 │
│ 882a100c07fffff │ 11.367704918032786 │    122 │
│ 882a100ae5fffff │ 15.114158415841583 │    101 │
│ 882a100e83fffff │ 13.868405797101449 │    138 │
│ 882a107455fffff │ 11.628684210526314 │    190 │
│ 882a107269fffff │ 15.572254901960786 │    102 │
│ 882a100e03fffff │ 13.148079470198676 │    151 │
│ 882a100e17fffff │ 12.087846153846154 │    130 │
├─────────────────┴────────────────────┴────────┤
│ 504 rows (20 shown)                 3 columns │
└───────────────────────────────────────────────┘
…
inner join
    t2
using
    (hexid)
""").do("""
select
      *
    , fare_feb - fare_jan
        as fare_change
order by
    fare_change
""")
out

┌─────────────────┬────────────────────┬────────────────────┬─────────────────────┐
│      hexid      │      fare_jan      │      fare_feb      │     fare_change     │
│     varchar     │       double       │       double       │       double        │
├─────────────────┼────────────────────┼────────────────────┼─────────────────────┤
│ 882a1071adfffff │  69.73084615384617 │ 58.737914798206276 │ -10.992931355639897 │
│ 882a100c01fffff │  27.11050359712231 │ 20.741372549019605 │  -6.369131048102705 │
│ 882a100e37fffff │  33.03063551401869 │  28.06555765595463 │   -4.96507785806406 │
│ 882a1072e7fffff │  42.25520958083832 │  38.42423076923077 │  -3.830978811607551 │
│ 882a1008e9fffff │  17.74246666666667 │ 14.009843750000002 │  -3.732622916666667 │
│ 882a1008e7fffff │ 14.852932330827068 │ 11.121284403669724 │ -3.7316479271573435 │
│ 882a107207fffff │ 16.860051282051284 │ 13.165116279069766 │ -3.6949350029815182 │
│ 882a100e85fffff │ 29.665849999999995 │ 26.645454545454545 │ -3.0203954545454508 │
│ 882a100cc1fffff │ 18.814318181818184 │  15.84008695652174 │ -2.9742312252964442 │
│ 882a10705bfffff │  25.10495283018868 │  22.22838565022421 │  -2.876567179964468 │
│        ·        │          ·         │          ·         │           ·         │
│        ·        │          ·         │          ·         │           ·         │
│        ·        │          ·         │          ·         │           ·         │
│ 882a10723bfffff │  36.69252998909488 │  42.57753889674682 │   5.885008907651944 │
│ 882a1072e3fffff │ 22.588899676375405 │ 28.593956521739123 │   6.005056845363718 │
│ 882a107239fffff │ 30.491762376237624 │   36.8459880239521 │   6.354225647714479 │
│ 882a107231fffff │ 25.715431472081217 │  33.13404255319149 │   7.418611081110274 │
│ 882a103b61fffff │ 38.679219251336896 │  46.58243243243243 │   7.903213181095531 │
│ 882a100ee5fffff │ 13.650664869721473 │ 21.770178571428573 │     8.1195137017071 │
│ 882a107209fffff │ 16.478663594470042 │ 24.767259036144576 │   8.288595441674534 │
│ 882a100813fffff │ 16.437430167597768 │ 25.611982758620687 │    9.17455259102292 │
│ 882a100d03fffff │ 12.004190371991243 │ 21.602025227750527 │   9.597834855759285 │
│ 882a100ebbfffff │  39.36631964809385 │  53.30473029045642 │   13.93841064236257 │
├─────────────────┴────────────────────┴────────────────────┴─────────────────────┤
│ 426 rows (20 shown)                                                   4 columns │
└─────────────────────────────────────────────────────────────────────────────────┘
…
db.do("""
    select
        hexid,
        t1.amount  as  fare_jan,
        t2.amount  as  fare_feb,
    from        t1
    inner join  t2
    using       (hexid)
""",
    'select *, fare_feb - fare_jan as fare_change',
    'order by fare_change',
)

┌─────────────────┬────────────────────┬────────────────────┬─────────────────────┐
│      hexid      │      fare_jan      │      fare_feb      │     fare_change     │
│     varchar     │       double       │       double       │       double        │
├─────────────────┼────────────────────┼────────────────────┼─────────────────────┤
│ 882a1071adfffff │  69.73084615384616 │ 58.737914798206276 │ -10.992931355639882 │
│ 882a100c01fffff │ 27.110503597122303 │ 20.741372549019605 │  -6.369131048102698 │
│ 882a100e37fffff │  33.03063551401869 │ 28.065557655954628 │  -4.965077858064063 │
│ 882a1072e7fffff │ 42.255209580838326 │  38.42423076923077 │  -3.830978811607558 │
│ 882a1008e9fffff │  17.74246666666667 │ 14.009843750000002 │  -3.732622916666667 │
│ 882a1008e7fffff │ 14.852932330827066 │ 11.121284403669724 │ -3.7316479271573417 │
│ 882a107207fffff │ 16.860051282051284 │ 13.165116279069768 │ -3.6949350029815164 │
│ 882a100e85fffff │ 29.665849999999995 │ 26.645454545454545 │ -3.0203954545454508 │
│ 882a100cc1fffff │  18.81431818181818 │  15.84008695652174 │ -2.9742312252964407 │
│ 882a10705bfffff │  25.10495283018868 │ 22.228385650224215 │ -2.8765671799644643 │
│        ·        │          ·         │          ·         │           ·         │
│        ·        │          ·         │          ·         │           ·         │
│        ·        │          ·         │          ·         │           ·         │
│ 882a10723bfffff │  36.69252998909488 │ 42.577538896746816 │   5.885008907651937 │
│ 882a1072e3fffff │ 22.588899676375405 │ 28.593956521739123 │   6.005056845363718 │
│ 882a107239fffff │ 30.491762376237617 │ 36.845988023952096 │   6.354225647714479 │
│ 882a107231fffff │ 25.715431472081217 │  33.13404255319149 │   7.418611081110274 │
│ 882a103b61fffff │ 38.679219251336896 │  46.58243243243242 │  7.9032131810955235 │
│ 882a100ee5fffff │ 13.650664869721473 │ 21.770178571428573 │     8.1195137017071 │
│ 882a107209fffff │ 16.478663594470046 │ 24.767259036144576 │    8.28859544167453 │
│ 882a100813fffff │ 16.437430167597768 │ 25.611982758620687 │    9.17455259102292 │
│ 882a100d03fffff │ 12.004190371991244 │ 21.602025227750524 │    9.59783485575928 │
│ 882a100ebbfffff │  39.36631964809385 │  53.30473029045642 │   13.93841064236257 │
├─────────────────┴────────────────────┴────────────────────┴─────────────────────┤
│ 426 rows (20 shown)                                                   4 columns │
└─────────────────────────────────────────────────────────────────────────────────┘
…
